cordic_test.vcd
$date
	Thu Mar 19 17:58:09 2026
$end
$version
	Icarus Verilog
$end
$timescale
	1ps
$end
$scope module cordic_tb $end
$var wire 16 ! z_out [15:0] $end
$var wire 16 " y_out [15:0] $end
$var wire 16 # x_out [15:0] $end
$var wire 1 $ done $end
$var reg 1 % clk $end
$var reg 2 & mode [1:0] $end
$var reg 1 ' rst_n $end
$var reg 1 ( start $end
$var reg 16 ) x_in [15:0] $end
$var reg 16 * y_in [15:0] $end
$var reg 16 + z_in [15:0] $end
$scope module uut $end
$var wire 1 % clk $end
$var wire 2 , mode [1:0] $end
$var wire 1 ' rst_n $end
$var wire 1 ( start $end
$var wire 16 - x_in [15:0] $end
$var wire 16 . y_in [15:0] $end
$var wire 16 / z_in [15:0] $end
$var wire 16 0 z_out [15:0] $end
$var wire 16 1 y_out [15:0] $end
$var wire 16 2 x_out [15:0] $end
$var wire 1 3 ld_init $end
$var wire 4 4 i_sel [3:0] $end
$var wire 1 5 en_iter $end
$var wire 1 $ done $end
$scope module control_unit $end
$var wire 1 % clk $end
$var wire 1 ' rst_n $end
$var wire 1 ( start $end
$var parameter 2 6 COMPUTE $end
$var parameter 2 7 FINISH $end
$var parameter 2 8 IDLE $end
$var reg 5 9 count [4:0] $end
$var reg 1 $ done $end
$var reg 1 5 en_iter $end
$var reg 4 : i_sel [3:0] $end
$var reg 1 3 ld_init $end
$var reg 2 ; state [1:0] $end
$upscope $end
$scope module datapath_unit $end
$var wire 1 % clk $end
$var wire 1 5 en_iter $end
$var wire 4 < i_sel [3:0] $end
$var wire 1 3 ld_init $end
$var wire 2 = mode [1:0] $end
$var wire 1 ' rst_n $end
$var wire 16 > x_in [15:0] $end
$var wire 16 ? x_out [15:0] $end
$var wire 16 @ y_in [15:0] $end
$var wire 16 A y_out [15:0] $end
$var wire 16 B z_in [15:0] $end
$var wire 16 C z_out [15:0] $end
$var wire 16 D y_shift [15:0] $end
$var wire 16 E x_shift [15:0] $end
$var wire 16 F lut_val [15:0] $end
$var parameter 32 G BW $end
$var reg 1 H di $end
$var reg 16 I x [15:0] $end
$var reg 16 J y [15:0] $end
$var reg 16 K z [15:0] $end
$scope function get_atan $end
$var reg 4 L idx [3:0] $end
$upscope $end
$upscope $end
$upscope $end
$upscope $end
$enddefinitions $end
$comment Show the parameter values. $end
$dumpall
b10000 G
b0 8
b10 7
b1 6
$end
#0
$dumpvars
b0 L
b0 K
b0 J
b0 I
1H
b11001001000011 F
b0 E
b0 D
b0 C
b0 B
b0 A
b0 @
b0 ?
b0 >
b0 =
b0 <
b0 ;
b0 :
b0 9
05
b0 4
03
b0 2
b0 1
b0 0
b0 /
b0 .
b0 -
b0 ,
b0 +
b0 *
b0 )
0(
0'
b0 &
0%
0$
b0 #
b0 "
b0 !
$end
#5000
1%
#10000
0%
#15000
1%
#20000
0%
1'
#25000
1%
#30000
0%
#35000
1%
#40000
0%
1(
b10000110000011 +
b10000110000011 /
b10000110000011 B
b10011011011101 )
b10011011011101 -
b10011011011101 >
#45000
b1 ;
13
1%
#50000
0%
0(
#55000
b1 9
15
03
b10000110000011 !
b10000110000011 0
b10000110000011 C
b10000110000011 K
b10011011011101 E
b10011011011101 #
b10011011011101 2
b10011011011101 ?
b10011011011101 I
1%
#60000
0%
#65000
b1110110101100 F
0H
b1 L
b1110111101000000 !
b1110111101000000 0
b1110111101000000 C
b1110111101000000 K
b1001101101110 D
b10011011011101 "
b10011011011101 1
b10011011011101 A
b10011011011101 J
b10 9
b1001101101110 E
b1 4
b1 :
b1 <
1%
#70000
0%
#75000
b111110101101 F
b10 L
1H
b11 9
b10 4
b10 :
b10 <
b110011101100 !
b110011101100 0
b110011101100 C
b110011101100 K
b10011011011 D
b1001101101111 "
b1001101101111 1
b1001101101111 A
b1001101101111 J
b111010010010 E
b11101001001011 #
b11101001001011 2
b11101001001011 ?
b11101001001011 I
1%
#80000
0%
#85000
b11111110101 F
0H
b11 L
b1111110100111111 !
b1111110100111111 0
b1111110100111111 C
b1111110100111111 K
b10001000000001 "
b10001000000001 1
b10001000000001 A
b10001000000001 J
b11010101110000 #
b11010101110000 2
b11010101110000 ?
b11010101110000 I
b100 9
b11010101110 E
b10001000000 D
b11 4
b11 :
b11 <
1%
#90000
0%
#95000
b1111111110 F
b100 L
1H
b101 9
b100 4
b100 :
b100 <
b10100110100 !
b10100110100 0
b10100110100 C
b10100110100 K
b110110101 D
b1101101010011 "
b1101101010011 1
b1101101010011 A
b1101101010011 J
b1110011011 E
b11100110110000 #
b11100110110000 2
b11100110110000 ?
b11100110110000 I
1%
#100000
0%
#105000
b111111111 F
b101 L
b100110110 !
b100110110 0
b100110110 C
b100110110 K
b1111011101110 "
b1111011101110 1
b1111011101110 A
b1111011101110 J
b11011111111011 #
b11011111111011 2
b11011111111011 ?
b11011111111011 I
b110 9
b110111111 E
b11110111 D
b101 4
b101 :
b101 <
1%
#110000
0%
#115000
b11111111 F
b110 L
0H
b111 9
b110 4
b110 :
b110 <
b1111111100110111 !
b1111111100110111 0
b1111111100110111 C
b1111111100110111 K
b10000010 D
b10000010101101 "
b10000010101101 1
b10000010101101 A
b10000010101101 J
b11011100 E
b11011100000100 #
b11011100000100 2
b11011100000100 ?
b11011100000100 I
1%
#120000
0%
#125000
b1111111 F
1H
b111 L
b110110 !
b110110 0
b110110 C
b110110 K
b1111111010001 "
b1111111010001 1
b1111111010001 A
b1111111010001 J
b11011110000110 #
b11011110000110 2
b11011110000110 ?
b11011110000110 I
b1000 9
b1101111 E
b111111 D
b111 4
b111 :
b111 <
1%
#130000
0%
#135000
b111111 F
b1000 L
0H
b1001 9
b1000 4
b1000 :
b1000 <
b1111111110110111 !
b1111111110110111 0
b1111111110110111 C
b1111111110110111 K
b100000 D
b10000001000000 "
b10000001000000 1
b10000001000000 A
b10000001000000 J
b110111 E
b11011101000111 #
b11011101000111 2
b11011101000111 ?
b11011101000111 I
1%
#140000
0%
#145000
b11111 F
b1001 L
b1111111111110110 !
b1111111111110110 0
b1111111111110110 C
b1111111111110110 K
b10000000001001 "
b10000000001001 1
b10000000001001 A
b10000000001001 J
b11011101100111 #
b11011101100111 2
b11011101100111 ?
b11011101100111 I
b1010 9
b11011 E
b10000 D
b1001 4
b1001 :
b1001 <
1%
#150000
0%
#155000
b1111 F
b1010 L
1H
b1011 9
b1101 E
b1010 4
b1010 :
b1010 <
b10101 !
b10101 0
b10101 C
b10101 K
b111 D
b1111111101110 "
b1111111101110 1
b1111111101110 A
b1111111101110 J
b11011101110111 #
b11011101110111 2
b11011101110111 ?
b11011101110111 I
1%
#160000
0%
#165000
b111 F
b1011 L
b110 !
b110 0
b110 C
b110 K
b1111111111011 "
b1111111111011 1
b1111111111011 A
b1111111111011 J
b11011101110000 #
b11011101110000 2
b11011101110000 ?
b11011101110000 I
b1100 9
b110 E
b11 D
b1011 4
b1011 :
b1011 <
1%
#170000
0%
#175000
b11 F
b1100 L
0H
b1101 9
b11 E
b1100 4
b1100 :
b1100 <
b1111111111111111 !
b1111111111111111 0
b1111111111111111 C
b1111111111111111 K
b10 D
b10000000000001 "
b10000000000001 1
b10000000000001 A
b10000000000001 J
b11011101101101 #
b11011101101101 2
b11011101101101 ?
b11011101101101 I
1%
#180000
0%
#185000
b1 F
1H
b1101 L
b10 !
b10 0
b10 C
b10 K
b1111111111110 "
b1111111111110 1
b1111111111110 A
b1111111111110 J
b11011101101111 #
b11011101101111 2
b11011101101111 ?
b11011101101111 I
b1110 9
b1 E
b0 D
b1101 4
b1101 :
b1101 <
1%
#190000
0%
#195000
b0 F
b1110 L
b1111 9
b0 E
b1110 4
b1110 :
b1110 <
b1 !
b1 0
b1 C
b1 K
b1111111111111 "
b1111111111111 1
b1111111111111 A
b1111111111111 J
1%
#200000
0%
#205000
b1111 L
b10 ;
b1111 4
b1111 :
b1111 <
1%
#210000
0%
#215000
b0 ;
1$
05
1%
#220000
0%
#225000
0$
1%
#230000
0%
#235000
1%
#240000
0%
#245000
1%
#250000
0%
#255000
1%
#260000
0%
#265000
1%
#270000
0%
#275000
1%
#280000
0%
#285000
1%
#290000
0%
#295000
1%
#300000
0%
#305000
1%
#310000
0%
#315000
1%
#320000
0%
#325000
b1 ;
b0 9
13
0H
1%
1(
b0 +
b0 /
b0 B
b10000000000000 *
b10000000000000 .
b10000000000000 @
b10000000000000 )
b10000000000000 -
b10000000000000 >
b1 &
b1 ,
b1 =
#330000
0%
#335000
b11001001000011 F
b0 L
b1 9
b10000000000000 E
b10000000000000 D
b0 4
b0 :
b0 <
15
03
b0 !
b0 0
b0 C
b0 K
b10000000000000 "
b10000000000000 1
b10000000000000 A
b10000000000000 J
b10000000000000 #
b10000000000000 2
b10000000000000 ?
b10000000000000 I
1%
0(
#340000
0%
#345000
b1110110101100 F
b1 L
b11001001000011 !
b11001001000011 0
b11001001000011 C
b11001001000011 K
b0 "
b0 1
b0 A
b0 J
b100000000000000 #
b100000000000000 2
b100000000000000 ?
b100000000000000 I
b10 9
b10000000000000 E
b0 D
b1 4
b1 :
b1 <
1%
#350000
0%
#355000
b111110101101 F
b10 L
1H
b11 9
b1000000000000 E
b10 4
b10 :
b10 <
b100111111101111 !
b100111111101111 0
b100111111101111 C
b100111111101111 K
b1111100000000000 D
b1110000000000000 "
b1110000000000000 1
b1110000000000000 A
b1110000000000000 J
1%
#360000
0%
#365000
b11111110101 F
b11 L
b100000001000010 !
b100000001000010 0
b100000001000010 C
b100000001000010 K
b1111000000000000 "
b1111000000000000 1
b1111000000000000 A
b1111000000000000 J
b100100000000000 #
b100100000000000 2
b100100000000000 ?
b100100000000000 I
b100 9
b100100000000 E
b1111111000000000 D
b11 4
b11 :
b11 <
1%
#370000
0%
#375000
b1111111110 F
b100 L
b101 9
b100 4
b100 :
b100 <
b11100001001101 !
b11100001001101 0
b11100001001101 C
b11100001001101 K
b1111111110010000 D
b1111100100000000 "
b1111100100000000 1
b1111100100000000 A
b1111100100000000 J
b10010100000 E
b100101000000000 #
b100101000000000 2
b100101000000000 ?
b100101000000000 I
1%
#380000
0%
#385000
b111111111 F
b101 L
b11010001001111 !
b11010001001111 0
b11010001001111 C
b11010001001111 K
b1111110110100000 "
b1111110110100000 1
b1111110110100000 A
b1111110110100000 J
b100101001110000 #
b100101001110000 2
b100101001110000 ?
b100101001110000 I
b110 9
b1001010011 E
b1111111111101101 D
b101 4
b101 :
b101 <
1%
#390000
0%
#395000
b11111111 F
b110 L
b111 9
b110 4
b110 :
b110 <
b11001001010000 !
b11001001010000 0
b11001001010000 C
b11001001010000 K
b1111111111111111 D
b1111111111110011 "
b1111111111110011 1
b1111111111110011 A
b1111111111110011 J
b100101010 E
b100101010000011 #
b100101010000011 2
b100101010000011 ?
b100101010000011 I
1%
#400000
0%
#405000
b1111111 F
0H
b111 L
b11000101010001 !
b11000101010001 0
b11000101010001 C
b11000101010001 K
b10 D
b100011101 "
b100011101 1
b100011101 A
b100011101 J
b100101010000100 #
b100101010000100 2
b100101010000100 ?
b100101010000100 I
b1000 9
b10010101 E
b111 4
b111 :
b111 <
1%
#410000
0%
#415000
b111111 F
b1000 L
b1001 9
b1001010 E
b1000 4
b1000 :
b1000 <
b11000111010000 !
b11000111010000 0
b11000111010000 C
b11000111010000 K
b0 D
b10001000 "
b10001000 1
b10001000 A
b10001000 J
b100101010000110 #
b100101010000110 2
b100101010000110 ?
b100101010000110 I
1%
#420000
0%
#425000
b11111 F
b1001 L
b11001000001111 !
b11001000001111 0
b11001000001111 C
b11001000001111 K
b111110 "
b111110 1
b111110 A
b111110 J
b1010 9
b100101 E
b1001 4
b1001 :
b1001 <
1%
#430000
0%
#435000
b1111 F
b1010 L
b1011 9
b10010 E
b1010 4
b1010 :
b1010 <
b11001000101110 !
b11001000101110 0
b11001000101110 C
b11001000101110 K
b11001 "
b11001 1
b11001 A
b11001 J
1%
#440000
0%
#445000
b111 F
b1011 L
b11001000111101 !
b11001000111101 0
b11001000111101 C
b11001000111101 K
b111 "
b111 1
b111 A
b111 J
b1100 9
b1001 E
b1011 4
b1011 :
b1011 <
1%
#450000
0%
#455000
b11 F
b1100 L
1H
b1101 9
b100 E
b1100 4
b1100 :
b1100 <
b11001001000100 !
b11001001000100 0
b11001001000100 C
b11001001000100 K
b1111111111111111 D
b1111111111111110 "
b1111111111111110 1
b1111111111111110 A
b1111111111111110 J
1%
#460000
0%
#465000
b1 F
0H
b1101 L
b11001001000001 !
b11001001000001 0
b11001001000001 C
b11001001000001 K
b0 D
b10 "
b10 1
b10 A
b10 J
b100101010000111 #
b100101010000111 2
b100101010000111 ?
b100101010000111 I
b1110 9
b10 E
b1101 4
b1101 :
b1101 <
1%
#470000
0%
#475000
b0 F
b1110 L
b1111 9
b1 E
b1110 4
b1110 :
b1110 <
b11001001000010 !
b11001001000010 0
b11001001000010 C
b11001001000010 K
b0 "
b0 1
b0 A
b0 J
1%
#480000
0%
#485000
1H
b1111 L
b1111111111111111 D
b1111111111111111 "
b1111111111111111 1
b1111111111111111 A
b1111111111111111 J
b10 ;
b0 E
b1111 4
b1111 :
b1111 <
1%
#490000
0%
#495000
b0 ;
1$
05
b100101010001000 #
b100101010001000 2
b100101010001000 ?
b100101010001000 I
1%
#500000
0%
#505000
0$
1%
#510000
0%
#515000
1%
#520000
0%
#525000
1%
#530000
0%
#535000
1%
#540000
0%
#545000
1%
#550000
0%
#555000
1%
#560000
0%
#565000
1%
#570000
0%
#575000
1%
#580000
0%
#585000
1%
#590000
0%
#595000
1%
#600000
0%
#605000
b1 ;
b0 9
13
1%
1(
b10000000000000 +
b10000000000000 /
b10000000000000 B
b0 *
b0 .
b0 @
b10 &
b10 ,
b10 =
#610000
0%
#615000
b100000000000000 F
b0 L
b1 9
b10000000000000 E
b0 4
b0 :
b0 <
15
03
b10000000000000 !
b10000000000000 0
b10000000000000 C
b10000000000000 K
b0 D
b0 "
b0 1
b0 A
b0 J
b10000000000000 #
b10000000000000 2
b10000000000000 ?
b10000000000000 I
1%
0(
#620000
0%
#625000
0H
b10000000000000 F
b1 L
b1110000000000000 !
b1110000000000000 0
b1110000000000000 C
b1110000000000000 K
b1000000000000 D
b10000000000000 "
b10000000000000 1
b10000000000000 A
b10000000000000 J
b10 9
b1000000000000 E
b1 4
b1 :
b1 <
1%
#630000
0%
#635000
b1000000000000 F
b10 L
1H
b11 9
b100000000000 E
b10 4
b10 :
b10 <
b0 !
b0 0
b0 C
b0 K
b10000000000 D
b1000000000000 "
b1000000000000 1
b1000000000000 A
b1000000000000 J
1%
#640000
0%
#645000
0H
b100000000000 F
b11 L
b1111000000000000 !
b1111000000000000 0
b1111000000000000 C
b1111000000000000 K
b1100000000000 "
b1100000000000 1
b1100000000000 A
b1100000000000 J
b100 9
b10000000000 E
b1100000000 D
b11 4
b11 :
b11 <
1%
#650000
0%
#655000
b10000000000 F
b100 L
b101 9
b1000000000 E
b100 4
b100 :
b100 <
b1111100000000000 !
b1111100000000000 0
b1111100000000000 C
b1111100000000000 K
b101000000 D
b1010000000000 "
b1010000000000 1
b1010000000000 A
b1010000000000 J
1%
#660000
0%
#665000
b1000000000 F
b101 L
b1111110000000000 !
b1111110000000000 0
b1111110000000000 C
b1111110000000000 K
b1001000000000 "
b1001000000000 1
b1001000000000 A
b1001000000000 J
b110 9
b100000000 E
b10010000 D
b101 4
b101 :
b101 <
1%
#670000
0%
#675000
b100000000 F
b110 L
b111 9
b10000000 E
b110 4
b110 :
b110 <
b1111111000000000 !
b1111111000000000 0
b1111111000000000 C
b1111111000000000 K
b1000100 D
b1000100000000 "
b1000100000000 1
b1000100000000 A
b1000100000000 J
1%
#680000
0%
#685000
b10000000 F
b111 L
b1111111100000000 !
b1111111100000000 0
b1111111100000000 C
b1111111100000000 K
b1000010000000 "
b1000010000000 1
b1000010000000 A
b1000010000000 J
b1000 9
b1000000 E
b100001 D
b111 4
b111 :
b111 <
1%
#690000
0%
#695000
b1000000 F
b1000 L
b1001 9
b100000 E
b1000 4
b1000 :
b1000 <
b1111111110000000 !
b1111111110000000 0
b1111111110000000 C
b1111111110000000 K
b10000 D
b1000001000000 "
b1000001000000 1
b1000001000000 A
b1000001000000 J
1%
#700000
0%
#705000
b100000 F
b1001 L
b1111111111000000 !
b1111111111000000 0
b1111111111000000 C
b1111111111000000 K
b1000000100000 "
b1000000100000 1
b1000000100000 A
b1000000100000 J
b1010 9
b10000 E
b1000 D
b1001 4
b1001 :
b1001 <
1%
#710000
0%
#715000
b10000 F
b1010 L
b1011 9
b1000 E
b100 D
b1010 4
b1010 :
b1010 <
b1111111111100000 !
b1111111111100000 0
b1111111111100000 C
b1111111111100000 K
b1000000010000 "
b1000000010000 1
b1000000010000 A
b1000000010000 J
1%
#720000
0%
#725000
b1000 F
b1011 L
b1111111111110000 !
b1111111111110000 0
b1111111111110000 C
b1111111111110000 K
b1000000001000 "
b1000000001000 1
b1000000001000 A
b1000000001000 J
b1100 9
b100 E
b10 D
b1011 4
b1011 :
b1011 <
1%
#730000
0%
#735000
b100 F
b1100 L
b1101 9
b10 E
b1 D
b1100 4
b1100 :
b1100 <
b1111111111111000 !
b1111111111111000 0
b1111111111111000 C
b1111111111111000 K
b1000000000100 "
b1000000000100 1
b1000000000100 A
b1000000000100 J
1%
#740000
0%
#745000
b10 F
b1101 L
b1111111111111100 !
b1111111111111100 0
b1111111111111100 C
b1111111111111100 K
b1000000000010 "
b1000000000010 1
b1000000000010 A
b1000000000010 J
b1110 9
b1 E
b0 D
b1101 4
b1101 :
b1101 <
1%
#750000
0%
#755000
b1 F
b1110 L
b1111 9
b0 E
b1110 4
b1110 :
b1110 <
b1111111111111110 !
b1111111111111110 0
b1111111111111110 C
b1111111111111110 K
b1000000000001 "
b1000000000001 1
b1000000000001 A
b1000000000001 J
1%
#760000
0%
#765000
b0 F
b1111 L
b1111111111111111 !
b1111111111111111 0
b1111111111111111 C
b1111111111111111 K
b10 ;
b1111 4
b1111 :
b1111 <
1%
#770000
0%
#775000
b0 ;
1$
05
1%
#780000
0%
#785000
0$
1%
#790000
0%
#795000
1%
#800000
0%
#805000
1%
#810000
0%
#815000
1%
#820000
0%
#825000
1%
#830000
0%
#835000
1%
#840000
0%
#845000
1%
#850000
0%
#855000
1%
#860000
0%
#865000
1%
#870000
0%
#875000
1%
#880000
0%
#885000
b1 ;
b0 9
13
1%
1(
b0 +
b0 /
b0 B
b1000000000000 *
b1000000000000 .
b1000000000000 @
b11 &
b11 ,
b11 =
#890000
0%
#895000
b100000000000000 F
b0 L
b1 9
b10000000000000 E
b1000000000000 D
b0 4
b0 :
b0 <
15
03
b0 !
b0 0
b0 C
b0 K
b1000000000000 "
b1000000000000 1
b1000000000000 A
b1000000000000 J
1%
0(
#900000
0%
#905000
1H
b10000000000000 F
b1 L
b100000000000000 !
b100000000000000 0
b100000000000000 C
b100000000000000 K
b1111000000000000 "
b1111000000000000 1
b1111000000000000 A
b1111000000000000 J
b10 9
b1000000000000 E
b1111100000000000 D
b1 4
b1 :
b1 <
1%
#910000
0%
#915000
b1000000000000 F
b10 L
0H
b11 9
b100000000000 E
b10 4
b10 :
b10 <
b10000000000000 !
b10000000000000 0
b10000000000000 C
b10000000000000 K
b0 D
b0 "
b0 1
b0 A
b0 J
1%
#920000
0%
#925000
1H
b100000000000 F
b11 L
b11000000000000 !
b11000000000000 0
b11000000000000 C
b11000000000000 K
b1111111100000000 D
b1111100000000000 "
b1111100000000000 1
b1111100000000000 A
b1111100000000000 J
b100 9
b10000000000 E
b11 4
b11 :
b11 <
1%
#930000
0%
#935000
b10000000000 F
b100 L
b101 9
b1000000000 E
b100 4
b100 :
b100 <
b10100000000000 !
b10100000000000 0
b10100000000000 C
b10100000000000 K
b1111111111000000 D
b1111110000000000 "
b1111110000000000 1
b1111110000000000 A
b1111110000000000 J
1%
#940000
0%
#945000
b1000000000 F
b101 L
b10010000000000 !
b10010000000000 0
b10010000000000 C
b10010000000000 K
b1111111000000000 "
b1111111000000000 1
b1111111000000000 A
b1111111000000000 J
b110 9
b100000000 E
b1111111111110000 D
b101 4
b101 :
b101 <
1%
#950000
0%
#955000
b100000000 F
b110 L
b111 9
b10000000 E
b110 4
b110 :
b110 <
b10001000000000 !
b10001000000000 0
b10001000000000 C
b10001000000000 K
b1111111111111100 D
b1111111100000000 "
b1111111100000000 1
b1111111100000000 A
b1111111100000000 J
1%
#960000
0%
#965000
b10000000 F
b111 L
b10000100000000 !
b10000100000000 0
b10000100000000 C
b10000100000000 K
b1111111110000000 "
b1111111110000000 1
b1111111110000000 A
b1111111110000000 J
b1000 9
b1000000 E
b1111111111111111 D
b111 4
b111 :
b111 <
1%
#970000
0%
#975000
b1000000 F
b1000 L
b1001 9
b100000 E
b1000 4
b1000 :
b1000 <
b10000010000000 !
b10000010000000 0
b10000010000000 C
b10000010000000 K
b1111111111000000 "
b1111111111000000 1
b1111111111000000 A
b1111111111000000 J
1%
#980000
0%
#985000
b100000 F
b1001 L
b10000001000000 !
b10000001000000 0
b10000001000000 C
b10000001000000 K
b1111111111100000 "
b1111111111100000 1
b1111111111100000 A
b1111111111100000 J
b1010 9
b10000 E
b1001 4
b1001 :
b1001 <
1%
#990000
0%
#995000
b10000 F
b1010 L
b1011 9
b1000 E
b1010 4
b1010 :
b1010 <
b10000000100000 !
b10000000100000 0
b10000000100000 C
b10000000100000 K
b1111111111110000 "
b1111111111110000 1
b1111111111110000 A
b1111111111110000 J
1%
#1000000
0%
#1005000
b1000 F
b1011 L
b10000000010000 !
b10000000010000 0
b10000000010000 C
b10000000010000 K
b1111111111111000 "
b1111111111111000 1
b1111111111111000 A
b1111111111111000 J
b1100 9
b100 E
b1011 4
b1011 :
b1011 <
1%
#1010000
0%
#1015000
b100 F
b1100 L
b1101 9
b10 E
b1100 4
b1100 :
b1100 <
b10000000001000 !
b10000000001000 0
b10000000001000 C
b10000000001000 K
b1111111111111100 "
b1111111111111100 1
b1111111111111100 A
b1111111111111100 J
1%
#1020000
0%
#1025000
b10 F
b1101 L
b10000000000100 !
b10000000000100 0
b10000000000100 C
b10000000000100 K
b1111111111111110 "
b1111111111111110 1
b1111111111111110 A
b1111111111111110 J
b1110 9
b1 E
b1101 4
b1101 :
b1101 <
1%
#1030000
0%
#1035000
b1 F
b1110 L
b1111 9
b0 E
b1110 4
b1110 :
b1110 <
b10000000000010 !
b10000000000010 0
b10000000000010 C
b10000000000010 K
b1111111111111111 "
b1111111111111111 1
b1111111111111111 A
b1111111111111111 J
1%
#1040000
0%
#1045000
b0 F
b1111 L
b10000000000001 !
b10000000000001 0
b10000000000001 C
b10000000000001 K
b10 ;
b1111 4
b1111 :
b1111 <
1%
#1050000
0%
#1055000
b0 ;
1$
05
1%
#1060000
0%
#1065000
0$
1%
